Machine Learning in R
…
## 3 Himalayan Climbing Expeditions Data

```r
climbers_df <- tt_data$members %>% 
  select(member_id, peak_name, season, year,sex, age, citizenship,
         expedition_role, hired, solo, oxygen_used, success, died) %>% 
  filter((!is.na(sex) & !is.na(citizenship) & !is.na(peak_name) & !is.na(expedition_role)) == T) %>% 
  mutate(across(where(~ is.character(.) | is.logical(.)), as.factor))

climbers_df
```

```
> # A tibble: 76,471 x 13
>    member_id    peak_name  season  year sex     age citizenship expedition_role hired
>    <fct>        <fct>      <fct>  <dbl> <fct> <dbl> <fct>       <fct>           <fct>
>  1 AMAD78301-01 Ama Dablam Autumn  1978 M        40 France      Leader          FALSE
>  2 AMAD78301-02 Ama Dablam Autumn  1978 M        41 France      Deputy Leader   FALSE
>  3 AMAD78301-03 Ama Dablam Autumn  1978 M        27 France      Climber         FALSE
>  4 AMAD78301-04 Ama Dablam Autumn  1978 M        40 France      Exp Doctor      FALSE
>  5 AMAD78301-05 Ama Dablam Autumn  1978 M        34 France      Climber         FALSE
>  6 AMAD78301-06 Ama Dablam Autumn  1978 M        25 France      Climber         FALSE
>  7 AMAD78301-07 Ama Dablam Autumn  1978 M        41 France      Climber         FALSE
>  8 AMAD78301-08 Ama Dablam Autumn  1978 M        29 France      Climber         FALSE
>  9 AMAD79101-03 Ama Dablam Spring  1979 M        35 USA         Climber         FALSE
> 10 AMAD79101-04 Ama Dablam Spring  1979 M        37 W Germany   Climber         FALSE
> # ... with 76,461 more rows, and 4 more variables: solo <fct>, oxygen_used <fct>,
> #   success <fct>, died <fct>
```
…
## 4.1 `rsample`: Resampling Infrastructure

To extract the training and test data, we can use the `training()` and `testing()` functions.

.panelset[
.panel[.panel-name[Train Set]

```r
train_set <- training(climbers_split)  # alternatively: analysis()
train_set
```

```
> # A tibble: 61,176 x 13
>    member_id    peak_name  season  year sex     age citizenship expedition_role  hired
>    <fct>        <fct>      <fct>  <dbl> <fct> <dbl> <fct>       <fct>            <fct>
>  1 AMAD78301-01 Ama Dablam Autumn  1978 M        40 France      Leader           FALSE
>  2 AMAD78301-02 Ama Dablam Autumn  1978 M        41 France      Deputy Leader    FALSE
>  3 AMAD78301-04 Ama Dablam Autumn  1978 M        40 France      Exp Doctor       FALSE
>  4 AMAD78301-06 Ama Dablam Autumn  1978 M        25 France      Climber          FALSE
>  5 AMAD78301-08 Ama Dablam Autumn  1978 M        29 France      Climber          FALSE
>  6 AMAD79101-03 Ama Dablam Spring  1979 M        35 USA         Climber          FALSE
>  7 AMAD79101-04 Ama Dablam Spring  1979 M        37 W Germany   Climber          FALSE
>  8 AMAD79101-05 Ama Dablam Spring  1979 M        23 USA         Climber          FALSE
>  9 AMAD79101-01 Ama Dablam Spring  1979 M        44 USA         Leader/Film Team FALSE
> 10 AMAD79101-06 Ama Dablam Spring  1979 M        25 USA         Film Team        FALSE
> # ... with 61,166 more rows, and 4 more variables: solo <fct>, oxygen_used <fct>,
> #   success <fct>, died <fct>
```

]
.panel[.panel-name[Test Set]

```r
test_set <- testing(climbers_split)    # alternatively: assessment()
test_set
```

```
> # A tibble: 15,295 x 13
>    member_id    peak_name  season  year sex     age citizenship expedition_role hired
>    <fct>        <fct>      <fct>  <dbl> <fct> <dbl> <fct>       <fct>           <fct>
>  1 AMAD78301-03 Ama Dablam Autumn  1978 M        27 France      Climber         FALSE
>  2 AMAD78301-05 Ama Dablam Autumn  1978 M        34 France      Climber         FALSE
>  3 AMAD78301-07 Ama Dablam Autumn  1978 M        41 France      Climber         FALSE
>  4 AMAD79101-10 Ama Dablam Spring  1979 M        30 USA         Film Team       FALSE
>  5 AMAD79101-15 Ama Dablam Spring  1979 M        29 USA         Climber/Kayaker FALSE
>  6 AMAD79101-18 Ama Dablam Spring  1979 M        23 Nepal       H-A Worker      TRUE 
>  7 AMAD79301-03 Ama Dablam Autumn  1979 F        33 France      Member          FALSE
>  8 AMAD79301-13 Ama Dablam Autumn  1979 M        31 France      Climber         FALSE
>  9 AMAD79301-14 Ama Dablam Autumn  1979 M        28 France      Climber         FALSE
> 10 AMAD79301-22 Ama Dablam Autumn  1979 M        31 France      Climber         FALSE
> # ... with 15,285 more rows, and 4 more variables: solo <fct>, oxygen_used <fct>,
> #   success <fct>, died <fct>
```
…
---

## 4.1 `rsample`: Resampling Infrastructure

To extract the training and validation data, we can again use `training()` and `testing()`.

.panelset[
.panel[.panel-name[Train Set]

```r
climbers_folds %>% pluck("splits", 1) %>% training()  # alternatively: analysis()
```

```
> # A tibble: 55,058 x 13
>    member_id    peak_name  season  year sex     age citizenship expedition_role  hired
>    <fct>        <fct>      <fct>  <dbl> <fct> <dbl> <fct>       <fct>            <fct>
>  1 AMAD78301-01 Ama Dablam Autumn  1978 M        40 France      Leader           FALSE
>  2 AMAD78301-02 Ama Dablam Autumn  1978 M        41 France      Deputy Leader    FALSE
>  3 AMAD78301-04 Ama Dablam Autumn  1978 M        40 France      Exp Doctor       FALSE
>  4 AMAD78301-06 Ama Dablam Autumn  1978 M        25 France      Climber          FALSE
>  5 AMAD78301-08 Ama Dablam Autumn  1978 M        29 France      Climber          FALSE
>  6 AMAD79101-04 Ama Dablam Spring  1979 M        37 W Germany   Climber          FALSE
>  7 AMAD79101-05 Ama Dablam Spring  1979 M        23 USA         Climber          FALSE
>  8 AMAD79101-01 Ama Dablam Spring  1979 M        44 USA         Leader/Film Team FALSE
>  9 AMAD79101-06 Ama Dablam Spring  1979 M        25 USA         Film Team        FALSE
> 10 AMAD79101-08 Ama Dablam Spring  1979 M        32 USA         Exp Doctor/Kaya~ FALSE
> # ... with 55,048 more rows, and 4 more variables: solo <fct>, oxygen_used <fct>,
> #   success <fct>, died <fct>
```
]
.panel[.panel-name[Test Set]

```r
climbers_folds %>% pluck("splits", 1) %>% testing()  # alternatively: assessment()
```

```
> # A tibble: 6,118 x 13
>    member_id    peak_name  season  year sex     age citizenship expedition_role hired
>    <fct>        <fct>      <fct>  <dbl> <fct> <dbl> <fct>       <fct>           <fct>
>  1 AMAD79101-03 Ama Dablam Spring  1979 M        35 USA         Climber         FALSE
>  2 AMAD79101-07 Ama Dablam Spring  1979 M        28 USA         Kayaker         FALSE
>  3 AMAD79301-09 Ama Dablam Autumn  1979 M        25 France      Climber         FALSE
>  4 AMAD79301-26 Ama Dablam Autumn  1979 M        NA Nepal       H-A Worker      TRUE 
>  5 AMAD79301-24 Ama Dablam Autumn  1979 M        NA Nepal       H-A Worker      TRUE 
>  6 AMAD79302-03 Ama Dablam Autumn  1979 M        27 New Zealand Climber         FALSE
>  7 AMAD79303-05 Ama Dablam Autumn  1979 M        36 Austria     Climber         FALSE
>  8 AMAD80302-05 Ama Dablam Autumn  1980 M        24 Japan       Climber         FALSE
>  9 AMAD81102-01 Ama Dablam Spring  1981 M        21 Australia   Leader          FALSE
> 10 AMAD81301-05 Ama Dablam Autumn  1981 M        28 USA         Climber         FALSE
> # ... with 6,108 more rows, and 4 more variables: solo <fct>, oxygen_used <fct>,
> #   success <fct>, died <fct>
```
…
---

## 4.2 `recipes`: Preprocessing Tools

Fourth, we can finally apply the fitted `recipe` to our data and perform the feature engineering steps.

```r
bake(mod_recipe_prepped, new_data = NULL)
```

```
> # A tibble: 72,369 x 24
>    member_id      year    age died  peak_name_Cho.O~ peak_name_Evere~ peak_name_Manas~
>    <fct>         <dbl>  <dbl> <fct>            <dbl>            <dbl>            <dbl>
>  1 NILS15301-01  0.989 -0.616 FALSE                0                0                0
>  2 LHOT02101-16  0.110 -1.40  FALSE                0                0                0
>  3 MAKA12105-02  0.786 -1.70  FALSE                0                0                0
>  4 KAG162101-01 -2.60   1.95  FALSE                0                0                0
>  5 EVER17157-14  1.12  -1.60  FALSE                0                1                0
>  6 AMAD08343-01  0.516  0.567 FALSE                0                0                0
>  7 SAIP92101-05 -0.567 -0.715 FALSE                0                0                0
>  8 EVER18122-03  1.19   0.370 FALSE                0                1                0
>  9 LHOT08106-03  0.516 -0.813 FALSE                0                0                0
> 10 RATH64301-15 -2.46  -0.813 FALSE                0                0                0
> # ... with 72,359 more rows, and 17 more variables: peak_name_other <dbl>,
> #   season_Spring <dbl>, season_Summer <dbl>, season_Winter <dbl>, sex_M <dbl>,
> #   citizenship_Japan <dbl>, citizenship_Nepal <dbl>, citizenship_UK <dbl>,
> #   citizenship_USA <dbl>, citizenship_other <dbl>, expedition_role_H.A.Worker <dbl>,
> #   expedition_role_Leader <dbl>, expedition_role_other <dbl>, hired_TRUE. <dbl>,
> #   solo_TRUE. <dbl>, oxygen_used_TRUE. <dbl>, success_TRUE. <dbl>
```
…
???
- leading dots protect against merging errors based on identical column names

---

## 4.3 `parsnip`: A Unified Modeling API

Thanks to these rules, we can directly combine the predictions with the `test_set`.

```r
test_set %>% bind_cols(predict(dt_cls_fit, new_data = ., type = "prob"))
```

```
> # A tibble: 15,295 x 15
>    member_id    peak_name  season  year sex     age citizenship expedition_role hired
>    <fct>        <fct>      <fct>  <dbl> <fct> <dbl> <fct>       <fct>           <fct>
>  1 AMAD78301-03 Ama Dablam Autumn  1978 M        27 France      Climber         FALSE
>  2 AMAD78301-05 Ama Dablam Autumn  1978 M        34 France      Climber         FALSE
>  3 AMAD78301-07 Ama Dablam Autumn  1978 M        41 France      Climber         FALSE
>  4 AMAD79101-10 Ama Dablam Spring  1979 M        30 USA         Film Team       FALSE
>  5 AMAD79101-15 Ama Dablam Spring  1979 M        29 USA         Climber/Kayaker FALSE
>  6 AMAD79101-18 Ama Dablam Spring  1979 M        23 Nepal       H-A Worker      TRUE 
>  7 AMAD79301-03 Ama Dablam Autumn  1979 F        33 France      Member          FALSE
>  8 AMAD79301-13 Ama Dablam Autumn  1979 M        31 France      Climber         FALSE
>  9 AMAD79301-14 Ama Dablam Autumn  1979 M        28 France      Climber         FALSE
> 10 AMAD79301-22 Ama Dablam Autumn  1979 M        31 France      Climber         FALSE
> # ... with 15,285 more rows, and 6 more variables: solo <fct>, oxygen_used <fct>,
> #   success <fct>, died <fct>, .pred_FALSE <dbl>, .pred_TRUE <dbl>
```
…
---

## 4.6 `tune`: Tidy Tuning Tools

.panelset[
.panel[.panel-name[collect_metrics()]
Extract performance metrics summarized across all resamples. Use `summarize = F` to obtain the unaggregated metrics for each resample.

```r
cls_wf_fit %>% collect_metrics(summarize = T)
```

```
> # A tibble: 400 x 8
>          penalty mixture .metric  .estimator  mean     n std_err .config              
>            <dbl>   <dbl> <chr>    <chr>      <dbl> <int>   <dbl> <chr>                
>  1 0.0000000001        0 accuracy binary     0.847    10 0.00135 Preprocessor1_Model0~
>  2 0.0000000001        0 roc_auc  binary     0.713    10 0.00811 Preprocessor1_Model0~
>  3 0.0000000001        0 sens     binary     0.853    10 0.00146 Preprocessor1_Model0~
>  4 0.0000000001        0 spec     binary     0.428    10 0.0160  Preprocessor1_Model0~
>  5 0.00000000129       0 accuracy binary     0.847    10 0.00135 Preprocessor1_Model0~
>  6 0.00000000129       0 roc_auc  binary     0.713    10 0.00811 Preprocessor1_Model0~
>  7 0.00000000129       0 sens     binary     0.853    10 0.00146 Preprocessor1_Model0~
>  8 0.00000000129       0 spec     binary     0.428    10 0.0160  Preprocessor1_Model0~
>  9 0.0000000167        0 accuracy binary     0.847    10 0.00135 Preprocessor1_Model0~
> 10 0.0000000167        0 roc_auc  binary     0.713    10 0.00811 Preprocessor1_Model0~
> # ... with 390 more rows
```
…
```r
cls_wf_fit %>% 
  collect_predictions(
    summarize = F,
    parameters = select_best(cls_wf_fit, metric = "roc_auc")
  )
```

```
> # A tibble: 61,177 x 9
>    id     .pred_FALSE .pred_TRUE  .row penalty mixture .pred_class died  .config      
>    <chr>        <dbl>      <dbl> <int>   <dbl>   <dbl> <fct>       <fct> <chr>        
>  1 Fold01       0.920     0.0795    16 0.00599   0.111 FALSE       FALSE Preprocessor~
>  2 Fold01       0.922     0.0778    18 0.00599   0.111 FALSE       FALSE Preprocessor~
>  3 Fold01       0.923     0.0769    19 0.00599   0.111 FALSE       FALSE Preprocessor~
>  4 Fold01       0.799     0.201     24 0.00599   0.111 FALSE       FALSE Preprocessor~
>  5 Fold01       0.647     0.353     37 0.00599   0.111 FALSE       FALSE Preprocessor~
>  6 Fold01       0.766     0.234     55 0.00599   0.111 FALSE       FALSE Preprocessor~
>  7 Fold01       0.793     0.207     56 0.00599   0.111 FALSE       FALSE Preprocessor~
>  8 Fold01       0.802     0.198     76 0.00599   0.111 FALSE       FALSE Preprocessor~
>  9 Fold01       0.958     0.0416    88 0.00599   0.111 FALSE       FALSE Preprocessor~
> 10 Fold01       0.950     0.0504    90 0.00599   0.111 FALSE       FALSE Preprocessor~
> # ... with 61,167 more rows
```
…
## 4.8 `yardstick`: Tidy Model Performance

**Class Probability Metrics**

.panelset[
.panel[.panel-name[ROC Curve]

```r
collect_predictions(cls_wf_last_fit) %>%
  roc_curve(died, .pred_TRUE, event_level = "second")
```

```
> # A tibble: 5,609 x 3
>    .threshold specificity sensitivity
>         <dbl>       <dbl>       <dbl>
>  1  -Inf        0                   1
>  2     0.0115   0                   1
>  3     0.0117   0.0000664           1
>  4     0.0118   0.000133            1
>  5     0.0127   0.000199            1
>  6     0.0128   0.000266            1
>  7     0.0131   0.000332            1
>  8     0.0138   0.000398            1
>  9     0.0144   0.000465            1
> 10     0.0148   0.000531            1
> # ... with 5,599 more rows
```
…
